Code/testb.vcd
$date
	Sat Oct  1 07:24:31 2022
$end
$version
	Icarus Verilog
$end
$timescale
	1s
$end
$scope module testBench $end
$var reg 1 ! t_clk $end
$var reg 1 " t_reset $end
$scope module m $end
$var wire 2 # ALUOp [1:0] $end
$var wire 1 $ ALUsrc $end
$var wire 32 % PCin [31:0] $end
$var wire 32 & PCout [31:0] $end
$var wire 32 ' addOut1 [31:0] $end
$var wire 32 ( addOut2 [31:0] $end
$var wire 32 ) aluOut [31:0] $end
$var wire 3 * alucOut [2:0] $end
$var wire 1 + branch $end
$var wire 1 , clk $end
$var wire 32 - instruction [31:0] $end
$var wire 1 . jump $end
$var wire 32 / m2out [31:0] $end
$var wire 1 0 m2sel $end
$var wire 32 1 m3in [31:0] $end
$var wire 1 2 memRead $end
$var wire 2 3 memToReg [1:0] $end
$var wire 1 4 memWrite $end
$var wire 5 5 mux5Out [4:0] $end
$var wire 32 6 outM1 [31:0] $end
$var wire 28 7 outShl28 [27:0] $end
$var wire 32 8 outShl32 [31:0] $end
$var wire 32 9 outSignExtend [31:0] $end
$var wire 32 : readData [31:0] $end
$var wire 32 ; readData1 [31:0] $end
$var wire 32 < readData2 [31:0] $end
$var wire 2 = regDst [1:0] $end
$var wire 1 > regWrite $end
$var wire 1 ? reset $end
$var wire 32 @ writeData [31:0] $end
$var wire 1 A zero $end
$scope module pc $end
$var wire 1 , clk $end
$var wire 32 B next [31:0] $end
$var wire 1 ? reset $end
$var reg 32 C current [31:0] $end
$upscope $end
$scope module a1 $end
$var wire 32 D a [31:0] $end
$var wire 32 E b [31:0] $end
$var wire 32 F sum [31:0] $end
$upscope $end
$scope module im $end
$var wire 32 G address [31:0] $end
$var wire 32 H instruction [31:0] $end
$upscope $end
$scope module shl1 $end
$var wire 26 I in [25:0] $end
$var wire 28 J out [27:0] $end
$upscope $end
$scope module a4 $end
$var wire 28 K a [27:0] $end
$var wire 32 L b [31:0] $end
$var wire 32 M sum [31:0] $end
$upscope $end
$scope module c $end
$var wire 6 N opcode [5:0] $end
$var reg 2 O ALUOp [1:0] $end
$var reg 1 P ALUsrc $end
$var reg 1 Q branch $end
$var reg 1 R jump $end
$var reg 1 S memRead $end
$var reg 2 T memToReg [1:0] $end
$var reg 1 U memWrite $end
$var reg 2 V regDst [1:0] $end
$var reg 1 W regWrite $end
$upscope $end
$scope module m5 $end
$var wire 5 X a [4:0] $end
$var wire 5 Y b [4:0] $end
$var wire 5 Z out [4:0] $end
$var wire 2 [ sel [1:0] $end
$upscope $end
$scope module rf $end
$var wire 32 \ a0 [31:0] $end
$var wire 32 ] a1 [31:0] $end
$var wire 32 ^ a2 [31:0] $end
$var wire 32 _ a3 [31:0] $end
$var wire 32 ` at [31:0] $end
$var wire 1 , clk $end
$var wire 32 a fp [31:0] $end
$var wire 32 b gp [31:0] $end
$var wire 32 c k0 [31:0] $end
$var wire 32 d k1 [31:0] $end
$var wire 32 e ra [31:0] $end
$var wire 5 f readAdd1 [4:0] $end
$var wire 5 g readAdd2 [4:0] $end
$var wire 32 h readOut1 [31:0] $end
$var wire 32 i readOut2 [31:0] $end
$var wire 1 ? reset $end
$var wire 32 j s0 [31:0] $end
$var wire 32 k s1 [31:0] $end
$var wire 32 l s2 [31:0] $end
$var wire 32 m s3 [31:0] $end
$var wire 32 n s4 [31:0] $end
$var wire 32 o s5 [31:0] $end
$var wire 32 p s6 [31:0] $end
$var wire 32 q s7 [31:0] $end
$var wire 32 r sp [31:0] $end
$var wire 32 s t0 [31:0] $end
$var wire 32 t t1 [31:0] $end
$var wire 32 u t2 [31:0] $end
$var wire 32 v t3 [31:0] $end
$var wire 32 w t4 [31:0] $end
$var wire 32 x t5 [31:0] $end
$var wire 32 y t6 [31:0] $end
$var wire 32 z t7 [31:0] $end
$var wire 32 { t8 [31:0] $end
$var wire 32 | t9 [31:0] $end
$var wire 32 } v0 [31:0] $end
$var wire 32 ~ v1 [31:0] $end
$var wire 5 !" writeAdd [4:0] $end
$var wire 32 "" writeData [31:0] $end
$var wire 1 > writeEnable $end
$var wire 32 #" zero [31:0] $end
$var integer 32 $" i [31:0] $end
$upscope $end
$scope module aluc $end
$var wire 2 %" aluoP [1:0] $end
$var wire 6 &" func [5:0] $end
$var reg 3 '" res [2:0] $end
$upscope $end
$scope module sgnExtnd $end
$var wire 16 (" in [15:0] $end
$var wire 32 )" out [31:0] $end
$upscope $end
$scope module m1 $end
$var wire 32 *" a [31:0] $end
$var wire 32 +" b [31:0] $end
$var wire 32 ," out [31:0] $end
$var wire 1 $ sel $end
$upscope $end
$scope module alu $end
$var wire 32 -" in1 [31:0] $end
$var wire 32 ." in2 [31:0] $end
$var wire 3 /" sel [2:0] $end
$var reg 32 0" out [31:0] $end
$var reg 1 1" zero $end
$upscope $end
$scope module shl2 $end
$var wire 32 2" in [31:0] $end
$var wire 32 3" out [31:0] $end
$upscope $end
$scope module a2 $end
$var wire 32 4" a [31:0] $end
$var wire 32 5" b [31:0] $end
$var wire 32 6" sum [31:0] $end
$upscope $end
$scope module andg $end
$var wire 1 + a $end
$var wire 1 A b $end
$var wire 1 0 y $end
$upscope $end
$scope module m2 $end
$var wire 32 7" a [31:0] $end
$var wire 32 8" b [31:0] $end
$var wire 32 9" out [31:0] $end
$var wire 1 0 sel $end
$upscope $end
$scope module m3 $end
$var wire 32 :" a [31:0] $end
$var wire 32 ;" b [31:0] $end
$var wire 32 <" out [31:0] $end
$var wire 1 . sel $end
$upscope $end
$scope module dm $end
$var wire 1 , clk $end
$var wire 32 =" outData [31:0] $end
$var wire 32 >" readAdd [31:0] $end
$var wire 1 2 readEnable $end
$var wire 1 ? reset $end
$var wire 32 ?" writeData [31:0] $end
$var wire 1 4 writeEnable $end
$upscope $end
$scope module m4 $end
$var wire 32 @" a [31:0] $end
$var wire 32 A" b [31:0] $end
$var wire 32 B" out [31:0] $end
$var wire 2 C" sel [1:0] $end
$upscope $end
$upscope $end
$upscope $end
$enddefinitions $end
#0
$dumpvars
b0 C"
bx B"
bx A"
bx @"
bx ?"
bx >"
bx ="
bx <"
bx ;"
bx :"
bx 9"
bx 8"
bx 7"
bx 6"
bx 5"
bx00 4"
bx00 3"
bx 2"
01"
bx 0"
b10 /"
bx ."
bx -"
bx ,"
bx +"
bx *"
bx )"
bx ("
b10 '"
bx &"
b0 %"
bx $"
b0 #"
bx ""
bx !"
bz ~
bz }
bz |
bz {
b111111111111 z
b111111111111 y
bz x
bz w
b10111011 v
b10101010 u
bz t
bz s
bz r
bz q
bz p
bz o
bz n
bz m
b1011 l
b1010 k
bz j
bx i
bx h
bx g
bx f
bz e
bz d
bz c
bz b
bz a
bz `
bz _
bz ^
bz ]
bz \
b1 [
bx Z
bx Y
bx X
1W
b1 V
0U
b0 T
0S
0R
0Q
0P
b0 O
bx N
bx M
bx0000000000000000000000000000 L
bx00 K
bx00 J
bx I
bx H
bx G
bx F
b100 E
bx D
bx C
bx B
0A
bx @
0?
1>
b1 =
bx <
bx ;
bx :
bx 9
bx00 8
bx00 7
bx 6
bx 5
04
b0 3
02
bx 1
00
bx /
0.
bx -
0,
0+
b10 *
bx )
bx (
bx '
bx &
bx %
0$
b0 #
0"
0!
$end
#7
1!
1,
#12
b101010000000000000000110001100 @
b101010000000000000000110001100 ""
b101010000000000000000110001100 B"
01"
0A
b1 0"
b101010000000000000000110001100 :
b101010000000000000000110001100 ="
b101010000000000000000110001100 A"
b1 )
b1 >"
b1 @"
b1000 (
b1000 6"
b1000 8"
b100 %
b100 B
b100 <"
1S
12
b1 T
b1 3
b1 C"
1P
1$
b0 V
b0 =
b0 [
b1 6
b1 ,"
b1 ."
b1010 5
b1010 Z
b1010 !"
b100 8
b100 3"
b100 4"
b100 /
b100 9"
b100 :"
b0 L
b101010000000000000000100 1
b101010000000000000000100 M
b101010000000000000000100 ;"
b100011 N
b1010 g
b0 <
b0 i
b0 *"
b0 ?"
b1 f
b0 ;
b0 h
b0 -"
b1010 X
b0 Y
b1 ("
b1 9
b1 )"
b1 +"
b1 2"
b1 &"
b1010100000000000000001 I
b101010000000000000000100 7
b101010000000000000000100 J
b101010000000000000000100 K
b0 e
b0 a
b0 r
b0 b
b0 d
b0 c
b0 |
b0 {
b0 q
b0 p
b0 o
b0 n
b0 m
b0 l
b0 k
b0 j
b0 z
b0 y
b0 x
b0 w
b0 v
b0 u
b0 t
b0 s
b0 _
b0 ^
b0 ]
b0 \
b0 ~
b0 }
b0 `
b100000 $"
b0 C
b100 '
b100 F
b100 5"
b100 7"
b10001100001010100000000000000001 -
b10001100001010100000000000000001 H
b0 &
b0 D
b0 G
1"
1?
#14
0"
0?
0!
0,
#21
b1000 %
b1000 B
b1000 <"
b1011 5
b1011 Z
b1011 !"
b1000 /
b1000 9"
b1000 :"
b1011 g
b0 f
b1011 X
b10110000000000000001 I
b1011000000000000000100 1
b1011000000000000000100 M
b1011000000000000000100 ;"
b1011000000000000000100 7
b1011000000000000000100 J
b1011000000000000000100 K
b100 C
b1100 (
b1100 6"
b1100 8"
b1000 '
b1000 F
b1000 5"
b1000 7"
b10001100000010110000000000000001 -
b10001100000010110000000000000001 H
b100 &
b100 D
b100 G
b101010000000000000000110001100 u
b0 <
b0 i
b0 *"
b0 ?"
1!
1,
#28
0!
0,
#35
b1001 5
b1001 Z
b1001 !"
b1010100000000000000001100011000 @
b1010100000000000000001100011000 ""
b1010100000000000000001100011000 B"
b1100 %
b1100 B
b1100 <"
b10 O
b10 #
b10 %"
0S
02
b0 T
b0 3
b0 C"
0P
0$
b1 V
b1 =
b1 [
b1010100000000000000001100011000 0"
bx :
bx ="
bx A"
b1010100000000000000001100011000 )
b1010100000000000000001100011000 >"
b1010100000000000000001100011000 @"
b101010000000000000000110001100 6
b101010000000000000000110001100 ,"
b101010000000000000000110001100 ."
b10010000010000000 8
b10010000010000000 3"
b10010000010000000 4"
b1100 /
b1100 9"
b1100 :"
b0 N
b1010 f
b101010000000000000000110001100 ;
b101010000000000000000110001100 h
b101010000000000000000110001100 -"
b1001 Y
b100100000100000 ("
b100100000100000 9
b100100000100000 )"
b100100000100000 +"
b100100000100000 2"
b100000 &"
b1010010110100100000100000 I
b101001011010010000010000000 1
b101001011010010000010000000 M
b101001011010010000010000000 ;"
b101001011010010000010000000 7
b101001011010010000010000000 J
b101001011010010000010000000 K
b101010000000000000000110001100 v
b101010000000000000000110001100 <
b101010000000000000000110001100 i
b101010000000000000000110001100 *"
b101010000000000000000110001100 ?"
b1000 C
b10010000010001100 (
b10010000010001100 6"
b10010000010001100 8"
b1100 '
b1100 F
b1100 5"
b1100 7"
b1010010110100100000100000 -
b1010010110100100000100000 H
b1000 &
b1000 D
b1000 G
1!
1,
#42
0!
0,
#49
b1 @
b1 ""
b1 B"
b10000 %
b10000 B
b10000 <"
b0 O
b0 #
b0 %"
1U
14
0W
0>
1P
1$
b0 V
b0 =
b0 [
b1 6
b1 ,"
b1 ."
01"
0A
b1 0"
b101010000000000000000110001100 :
b101010000000000000000110001100 ="
b101010000000000000000110001100 A"
b1 )
b1 >"
b1 @"
b1001 5
b1001 Z
b1001 !"
b100 8
b100 3"
b100 4"
b10 '"
b10 *
b10 /"
b10000 /
b10000 9"
b10000 :"
b101011 N
b1001 g
b1010100000000000000001100011000 <
b1010100000000000000001100011000 i
b1010100000000000000001100011000 *"
b1010100000000000000001100011000 ?"
b1 f
b0 ;
b0 h
b0 -"
b1001 X
b0 Y
b1 ("
b1 9
b1 )"
b1 +"
b1 2"
b1 &"
b1010010000000000000001 I
b101001000000000000000100 1
b101001000000000000000100 M
b101001000000000000000100 ;"
b101001000000000000000100 7
b101001000000000000000100 J
b101001000000000000000100 K
b1100 C
b10100 (
b10100 6"
b10100 8"
b10000 '
b10000 F
b10000 5"
b10000 7"
b10101100001010010000000000000001 -
b10101100001010010000000000000001 H
b1100 &
b1100 D
b1100 G
b1010100000000000000001100011000 t
1!
1,
#56
0!
0,
#63
b1010100000000000000001100011000 @
b1010100000000000000001100011000 ""
b1010100000000000000001100011000 B"
b10100 %
b10100 B
b10100 <"
0U
04
1S
12
1W
1>
b1 T
b1 3
b1 C"
b1110 5
b1110 Z
b1110 !"
b10100 /
b10100 9"
b10100 :"
b100011 N
b1110 g
b0 <
b0 i
b0 *"
b0 ?"
b1110 X
b1011100000000000000001 I
b101110000000000000000100 1
b101110000000000000000100 M
b101110000000000000000100 ;"
b101110000000000000000100 7
b101110000000000000000100 J
b101110000000000000000100 K
b10000 C
b11000 (
b11000 6"
b11000 8"
b10100 '
b10100 F
b10100 5"
b10100 7"
b10001100001011100000000000000001 -
b10001100001011100000000000000001 H
b10000 &
b10000 D
b10000 G
b1010100000000000000001100011000 :
b1010100000000000000001100011000 ="
b1010100000000000000001100011000 A"
1!
1,
#70
0!
0,
#77
b101010000000000000000110011011 @
b101010000000000000000110011011 ""
b101010000000000000000110011011 B"
b11000 %
b11000 B
b11000 <"
0S
02
b0 T
b0 3
b0 C"
b101010000000000000000110011011 0"
bx :
bx ="
bx A"
b101010000000000000000110011011 )
b101010000000000000000110011011 >"
b101010000000000000000110011011 @"
b1001 5
b1001 Z
b1001 !"
b1111 6
b1111 ,"
b1111 ."
b111100 8
b111100 3"
b111100 4"
b11000 /
b11000 9"
b11000 :"
b1000 N
b1001 g
b1010 f
b101010000000000000000110001100 ;
b101010000000000000000110001100 h
b101010000000000000000110001100 -"
b1001 X
b1111 ("
b1111 9
b1111 )"
b1111 +"
b1111 2"
b1111 &"
b1010010010000000000001111 I
b101001001000000000000111100 1
b101001001000000000000111100 M
b101001001000000000000111100 ;"
b101001001000000000000111100 7
b101001001000000000000111100 J
b101001001000000000000111100 K
b10100 C
b1010100 (
b1010100 6"
b1010100 8"
b11000 '
b11000 F
b11000 5"
b11000 7"
b100001010010010000000000001111 -
b100001010010010000000000001111 H
b10100 &
b10100 D
b10100 G
b1010100000000000000001100011000 y
b1010100000000000000001100011000 <
b1010100000000000000001100011000 i
b1010100000000000000001100011000 *"
b1010100000000000000001100011000 ?"
1!
1,
#84
0!
0,
#91
b1010100000000000000001100011000 :
b1010100000000000000001100011000 ="
b1010100000000000000001100011000 A"
b1 @
b1 ""
b1 B"
b111 '"
b111 *
b111 /"
b10000 5
b10000 Z
b10000 !"
b1 0"
b1 )
b1 >"
b1 @"
b11100 %
b11100 B
b11100 <"
b10 O
b10 #
b10 %"
0P
0$
b1 V
b1 =
b1 [
b101010000000000000000110011011 6
b101010000000000000000110011011 ,"
b101010000000000000000110011011 ."
b11111111111111100000000010101000 8
b11111111111111100000000010101000 3"
b11111111111111100000000010101000 4"
b11100 /
b11100 9"
b11100 :"
b0 N
b10000 Y
b1000000000101010 ("
b11111111111111111000000000101010 9
b11111111111111111000000000101010 )"
b11111111111111111000000000101010 +"
b11111111111111111000000000101010 2"
b101010 &"
b1010010011000000000101010 I
b101001001100000000010101000 1
b101001001100000000010101000 M
b101001001100000000010101000 ;"
b101001001100000000010101000 7
b101001001100000000010101000 J
b101001001100000000010101000 K
b101010000000000000000110011011 t
b101010000000000000000110011011 <
b101010000000000000000110011011 i
b101010000000000000000110011011 *"
b101010000000000000000110011011 ?"
b11000 C
b11111111111111100000000011000100 (
b11111111111111100000000011000100 6"
b11111111111111100000000011000100 8"
b11100 '
b11100 F
b11100 5"
b11100 7"
b1010010011000000000101010 -
b1010010011000000000101010 H
b11000 &
b11000 D
b11000 G
1!
1,
#98
0!
0,
#105
b1111 @
b1111 ""
b1111 B"
b100000 %
b100000 B
b100000 <"
b1 O
b1 #
b1 %"
1Q
1+
0W
0>
b0 V
b0 =
b0 [
b101010000000000000000110001100 6
b101010000000000000000110001100 ,"
b101010000000000000000110001100 ."
b1111 0"
b1100011000010111000000000 :
b1100011000010111000000000 ="
b1100011000010111000000000 A"
b1111 )
b1111 >"
b1111 @"
b1011 5
b1011 Z
b1011 !"
b1000 8
b1000 3"
b1000 4"
b110 '"
b110 *
b110 /"
b100000 /
b100000 9"
b100000 :"
b100 N
b1011 g
b101010000000000000000110001100 <
b101010000000000000000110001100 i
b101010000000000000000110001100 *"
b101010000000000000000110001100 ?"
b1001 f
b101010000000000000000110011011 ;
b101010000000000000000110011011 h
b101010000000000000000110011011 -"
b1011 X
b0 Y
b10 ("
b10 9
b10 )"
b10 +"
b10 2"
b10 &"
b1001010110000000000000010 I
b100101011000000000000001000 1
b100101011000000000000001000 M
b100101011000000000000001000 ;"
b100101011000000000000001000 7
b100101011000000000000001000 J
b100101011000000000000001000 K
b11100 C
b101000 (
b101000 6"
b101000 8"
b100000 '
b100000 F
b100000 5"
b100000 7"
b10001001010110000000000000010 -
b10001001010110000000000000010 H
b11100 &
b11100 D
b11100 G
b1 j
1!
1,
#112
0!
0,
#119
10
b0 @
b0 ""
b0 B"
b101000 %
b101000 B
b101000 <"
11"
1A
b0 0"
b10001100010101000000000000000011 :
b10001100010101000000000000000011 ="
b10001100010101000000000000000011 A"
b0 )
b0 >"
b0 @"
b0 6
b0 ,"
b0 ."
b10010 5
b10010 Z
b10010 !"
b100 8
b100 3"
b100 4"
b101000 /
b101000 9"
b101000 :"
b10001 f
b0 ;
b0 h
b0 -"
b10010 g
b0 <
b0 i
b0 *"
b0 ?"
b10010 X
b1 ("
b1 9
b1 )"
b1 +"
b1 2"
b1 &"
b10001100100000000000000001 I
b1000110010000000000000000100 1
b1000110010000000000000000100 M
b1000110010000000000000000100 ;"
b1000110010000000000000000100 7
b1000110010000000000000000100 J
b1000110010000000000000000100 K
b100000 C
b101000 (
b101000 6"
b101000 8"
b100100 '
b100100 F
b100100 5"
b100100 7"
b10010001100100000000000000001 -
b10010001100100000000000000001 H
b100000 &
b100000 D
b100000 G
1!
1,
#126
0!
0,
#133
b101010000000000000000110001000 @
b101010000000000000000110001000 ""
b101010000000000000000110001000 B"
b0 '"
b0 *
b0 /"
00
b101100 %
b101100 B
b101100 <"
01"
0A
b101010000000000000000110001000 0"
bx :
bx ="
bx A"
b101010000000000000000110001000 )
b101010000000000000000110001000 >"
b101010000000000000000110001000 @"
b10 O
b10 #
b10 %"
0Q
0+
1W
1>
b1 V
b1 =
b1 [
b101010000000000000000110001100 6
b101010000000000000000110001100 ,"
b101010000000000000000110001100 ."
b1010 5
b1010 Z
b1010 !"
b10100000010010000 8
b10100000010010000 3"
b10100000010010000 4"
b101100 /
b101100 9"
b101100 :"
b1001 f
b101010000000000000000110011011 ;
b101010000000000000000110011011 h
b101010000000000000000110011011 -"
b0 N
b1011 g
b101010000000000000000110001100 <
b101010000000000000000110001100 i
b101010000000000000000110001100 *"
b101010000000000000000110001100 ?"
b1011 X
b1010 Y
b101000000100100 ("
b101000000100100 9
b101000000100100 )"
b101000000100100 +"
b101000000100100 2"
b100100 &"
b1001010110101000000100100 I
b100101011010100000010010000 1
b100101011010100000010010000 M
b100101011010100000010010000 ;"
b100101011010100000010010000 7
b100101011010100000010010000 J
b100101011010100000010010000 K
b101000 C
b10100000010111100 (
b10100000010111100 6"
b10100000010111100 8"
b101100 '
b101100 F
b101100 5"
b101100 7"
b1001010110101000000100100 -
b1001010110101000000100100 H
b101000 &
b101000 D
b101000 G
1!
1,
#140
0!
0,
#147
b101010000000000000000110001100 @
b101010000000000000000110001100 ""
b101010000000000000000110001100 B"
b110000 %
b110000 B
b110000 <"
b101010000000000000000110001100 0"
b101010000000000000000110001100 )
b101010000000000000000110001100 >"
b101010000000000000000110001100 @"
b1110 5
b1110 Z
b1110 !"
b11100000010010100 8
b11100000010010100 3"
b11100000010010100 4"
b1 '"
b1 *
b1 /"
b110000 /
b110000 9"
b110000 :"
b1010 f
b101010000000000000000110001000 ;
b101010000000000000000110001000 h
b101010000000000000000110001000 -"
b1110 Y
b111000000100101 ("
b111000000100101 9
b111000000100101 )"
b111000000100101 +"
b111000000100101 2"
b100101 &"
b1010010110111000000100101 I
b101001011011100000010010100 1
b101001011011100000010010100 M
b101001011011100000010010100 ;"
b101001011011100000010010100 7
b101001011011100000010010100 J
b101001011011100000010010100 K
b101010000000000000000110001000 u
b101100 C
b11100000011000100 (
b11100000011000100 6"
b11100000011000100 8"
b110000 '
b110000 F
b110000 5"
b110000 7"
b1010010110111000000100101 -
b1010010110111000000100101 H
b101100 &
b101100 D
b101100 G
1!
1,
#154
0!
0,
#161
b10011 @
b10011 ""
b10011 B"
b110100 %
b110100 B
b110100 <"
b101010000000000000000110001000 6
b101010000000000000000110001000 ,"
b101010000000000000000110001000 ."
b10011 0"
b1001000010100100100000000 :
b1001000010100100100000000 ="
b1001000010100100100000000 A"
b10011 )
b10011 >"
b10011 @"
b1111 5
b1111 Z
b1111 !"
b11110000010001000 8
b11110000010001000 3"
b11110000010001000 4"
b110 '"
b110 *
b110 /"
b110100 /
b110100 9"
b110100 :"
b1010 g
b101010000000000000000110001000 <
b101010000000000000000110001000 i
b101010000000000000000110001000 *"
b101010000000000000000110001000 ?"
b1001 f
b101010000000000000000110011011 ;
b101010000000000000000110011011 h
b101010000000000000000110011011 -"
b1010 X
b1111 Y
b111100000100010 ("
b111100000100010 9
b111100000100010 )"
b111100000100010 +"
b111100000100010 2"
b100010 &"
b1001010100111100000100010 I
b100101010011110000010001000 1
b100101010011110000010001000 M
b100101010011110000010001000 ;"
b100101010011110000010001000 7
b100101010011110000010001000 J
b100101010011110000010001000 K
b110000 C
b11110000010111100 (
b11110000010111100 6"
b11110000010111100 8"
b110100 '
b110100 F
b110100 5"
b110100 7"
b1001010100111100000100010 -
b1001010100111100000100010 H
b110000 &
b110000 D
b110000 G
b101010000000000000000110001100 y
1!
1,
#168
0!
0,
#175
bx @
bx ""
bx B"
b111000 %
b111000 B
b111000 <"
b0 O
b0 #
b0 %"
bx 6
bx ,"
bx ."
bx 0"
bx :
bx ="
bx A"
bx )
bx >"
bx @"
bx 5
bx Z
bx !"
bx00 8
bx00 3"
bx00 4"
b10 '"
b10 *
b10 /"
b111000 /
b111000 9"
b111000 :"
bx N
bx g
bx <
bx i
bx *"
bx ?"
bx f
bx ;
bx h
bx -"
bx X
bx Y
bx ("
bx 9
bx )"
bx +"
bx 2"
bx &"
bx I
bx 1
bx M
bx ;"
bx00 7
bx00 J
bx00 K
b10011 z
b110100 C
bx (
bx 6"
bx 8"
b111000 '
b111000 F
b111000 5"
b111000 7"
bx -
bx H
b110100 &
b110100 D
b110100 G
1!
1,
#182
0!
0,
#189
b111100 %
b111100 B
b111100 <"
b111100 /
b111100 9"
b111100 :"
b111000 C
b111100 '
b111100 F
b111100 5"
b111100 7"
b111000 &
b111000 D
b111000 G
1!
1,
